\relax 
\@writefile{toc}{\contentsline {section}{\numberline {1}Not in the exam:}{2}}
\@writefile{toc}{\contentsline {section}{\numberline {2}Core C++ Topics:}{2}}
\@writefile{toc}{\contentsline {subsection}{\numberline {2.1}Classes}{2}}
\@writefile{toc}{\contentsline {subsection}{\numberline {2.2}Containers}{2}}
\@writefile{toc}{\contentsline {subsection}{\numberline {2.3}Algorithms}{2}}
\@writefile{toc}{\contentsline {subsection}{\numberline {2.4}Friends}{2}}
\@writefile{toc}{\contentsline {subsection}{\numberline {2.5}Const}{3}}
\@writefile{toc}{\contentsline {subsection}{\numberline {2.6}Constructors and initialiser lists}{4}}
\@writefile{toc}{\contentsline {subsection}{\numberline {2.7}iterators}{5}}
\@writefile{toc}{\contentsline {subsection}{\numberline {2.8}Copy Control}{5}}
\@writefile{toc}{\contentsline {subsection}{\numberline {2.9}Operator Overloading}{6}}
\@writefile{toc}{\contentsline {subsection}{\numberline {2.10}Exception Handling and noexcept}{6}}
\@writefile{toc}{\contentsline {subsection}{\numberline {2.11}Scoping}{7}}
\@writefile{toc}{\contentsline {subsection}{\numberline {2.12}Types, Pointers and References}{7}}
\@writefile{toc}{\contentsline {subsection}{\numberline {2.13}Using statement}{7}}
\@writefile{toc}{\contentsline {section}{\numberline {3}C++11 Topics:}{7}}
\@writefile{toc}{\contentsline {subsection}{\numberline {3.1}Lamda Functions}{7}}
\@writefile{toc}{\contentsline {subsection}{\numberline {3.2}Trailing return types}{7}}
\@writefile{toc}{\contentsline {subsection}{\numberline {3.3}std::bind}{7}}
\@writefile{toc}{\contentsline {subsection}{\numberline {3.4}std::forward}{7}}
\@writefile{toc}{\contentsline {subsection}{\numberline {3.5}Most Vexing Parse}{7}}
\@writefile{toc}{\contentsline {subsection}{\numberline {3.6}Narrowing}{8}}
\@writefile{toc}{\contentsline {subsection}{\numberline {3.7}Threads, mutexes and lock guards}{8}}
\@writefile{toc}{\contentsline {section}{\numberline {4}Dynamic Memory Management Topics:}{8}}
\@writefile{toc}{\contentsline {subsection}{\numberline {4.1}Named and unamed objects}{8}}
\@writefile{toc}{\contentsline {subsection}{\numberline {4.2}Memory Leaks}{8}}
\@writefile{toc}{\contentsline {subsection}{\numberline {4.3}Double Free Problem}{8}}
\@writefile{toc}{\contentsline {subsection}{\numberline {4.4}Smart Pointers (theory and C++11 types)}{8}}
\@writefile{toc}{\contentsline {subsection}{\numberline {4.5}RAII}{9}}
\@writefile{toc}{\contentsline {subsection}{\numberline {4.6}Reference Counting}{10}}
\@writefile{toc}{\contentsline {section}{\numberline {5}Templates Topics:}{10}}
\@writefile{toc}{\contentsline {subsection}{\numberline {5.1}Template Specialisation}{10}}
\@writefile{toc}{\contentsline {subsection}{\numberline {5.2}Type traits}{10}}
\@writefile{toc}{\contentsline {subsection}{\numberline {5.3}Variadic Templates}{10}}
\@writefile{toc}{\contentsline {section}{\numberline {6}OOP Topics:}{11}}
\@writefile{toc}{\contentsline {subsection}{\numberline {6.1}Access Control (public, private, protected)}{11}}
\@writefile{toc}{\contentsline {subsection}{\numberline {6.2}Inheritance}{11}}
\@writefile{toc}{\contentsline {subsection}{\numberline {6.3}Polymorphism}{12}}
\@writefile{toc}{\contentsline {subsection}{\numberline {6.4}Encapsulation}{12}}
\@writefile{toc}{\contentsline {subsection}{\numberline {6.5}Coupling}{12}}
\@writefile{toc}{\contentsline {subsection}{\numberline {6.6}Covariance}{13}}
\@writefile{toc}{\contentsline {subsection}{\numberline {6.7}Contravariance}{13}}
\@writefile{toc}{\contentsline {subsection}{\numberline {6.8}Dynamic Binding}{13}}
\@writefile{toc}{\contentsline {subsection}{\numberline {6.9}Vtables}{13}}
\@writefile{toc}{\contentsline {subsection}{\numberline {6.10}Construction and Destruction}{14}}
\@writefile{toc}{\contentsline {subsection}{\numberline {6.11}Object Slicing Problem}{14}}
